15:01:38,532 [main      ] INFO  (driver.LoginAjaxTest:30) Driver creado!!!
15:01:38,537 [main      ] INFO  (driver.LoginAjaxTest:41) ---------Cargando a modo Ajax
15:01:46,215 [main      ] INFO  (driver.LoginAjaxTest:36) Driver terminado!!
16:32:02,598 [main      ] INFO  (driver.LoginTest:25) Driver creado!!!
16:32:02,601 [main      ] INFO  (driver.LoginTest:41) ---------loginValido
16:32:05,865 [main      ] INFO  (driver.LoginTest:36) Driver terminado!!
16:32:29,607 [main      ] INFO  (driver.LoginTest:25) Driver creado!!!
16:32:29,610 [main      ] INFO  (driver.LoginTest:41) ---------loginValido
16:32:32,511 [main      ] INFO  (driver.LoginTest:36) Driver terminado!!
